{
  "ViewId": "fb4049c6-a4f2-4eef-8c4d-9784695b9b38",
  "class": "has-text-danger",
  "deletedAt": null,
  "id": "b5091ebe-7c00-4fda-ae3a-c346e6c2a879",
  "labelKey": "remove",
  "order": "2",
  "params": {
    "id": ":id:"
  },
  "position": null,
  "slug": null,
  "type": "delete"
}