{
  "ChildViewId": null,
  "ModelFieldId": "21905ce5-e500-4f34-b998-6a1e3249b582",
  "ViewId": "75123032-b4dc-44f9-b57f-05142e7290fb",
  "breakAfter": false,
  "canOrderBy": false,
  "canUpdate": false,
  "class": "is-2",
  "deletedAt": null,
  "descriptionColumn": null,
  "filters": null,
  "findType": null,
  "format": null,
  "helperTextLabelKey": "",
  "id": "4cc66669-a6fa-434d-a978-b85b78561f1d",
  "include": null,
  "labelKey": "createdAt",
  "mask": null,
  "order": "3",
  "placeholder": null,
  "required": false,
  "valueColumn": null
}