{
  "ChildViewId": null,
  "ModelFieldId": "4331c9c1-3c05-44ca-80b9-fe37040cc5e2",
  "ViewId": "41f44617-ceb9-499e-bc9b-5a3687c6cb83",
  "breakAfter": false,
  "canOrderBy": false,
  "canUpdate": false,
  "class": "is-2",
  "deletedAt": null,
  "descriptionColumn": "name",
  "filters": null,
  "findType": null,
  "format": null,
  "helperTextLabelKey": "",
  "id": "91e84a0c-4258-4676-8c4f-60284ad32597",
  "include": null,
  "labelKey": "ModelId",
  "mask": null,
  "order": "0",
  "placeholder": null,
  "required": false,
  "valueColumn": null
}