{
  "ModelId": "9c16a857-9808-4de0-9362-48b29f9e5f79",
  "TargetModelFieldId": null,
  "default": null,
  "deletedAt": null,
  "id": "33c83b7d-5e8c-4300-bb9f-3e4a0f5b0107",
  "length": 255,
  "modelFieldType": "DataTypes.STRING",
  "name": "labelKey",
  "selectOptions": null,
  "targetModel": null,
  "targetModelAlias": null,
  "type": "string"
}