{
  "ModelId": "9c16a857-9808-4de0-9362-48b29f9e5f79",
  "TargetModelFieldId": null,
  "default": null,
  "deletedAt": null,
  "id": "9c7c1c1b-1721-485a-953e-628731909b09",
  "length": 255,
  "modelFieldType": "DataTypes.STRING",
  "name": "valueColumn",
  "selectOptions": null,
  "targetModel": null,
  "targetModelAlias": null,
  "type": "string"
}