{
  "ChildViewId": null,
  "ModelFieldId": "5aee05b2-a013-46fa-a52e-0d5cd89ff2d8",
  "ViewId": "65d0efff-ea3f-446d-9908-aff12504dfd8",
  "breakAfter": false,
  "canOrderBy": false,
  "canUpdate": false,
  "class": "is-12",
  "deletedAt": null,
  "descriptionColumn": null,
  "filters": null,
  "findType": null,
  "format": null,
  "helperTextLabelKey": "",
  "id": "7674b780-3141-47e7-b193-744366380a3d",
  "include": null,
  "labelKey": "name",
  "mask": null,
  "order": "0",
  "placeholder": null,
  "required": false,
  "valueColumn": null
}