{
  "ViewId": "41f44617-ceb9-499e-bc9b-5a3687c6cb83",
  "class": "has-text-danger",
  "deletedAt": null,
  "id": "170ca577-98f7-4b59-a7a6-1bd28444c942",
  "labelKey": "remove",
  "order": "2",
  "params": {
    "id": ":id:"
  },
  "position": null,
  "slug": null,
  "type": "delete"
}