{
  "ChildViewId": null,
  "ModelFieldId": "5b66b62c-01da-46ba-a064-218b028cbb68",
  "ViewId": "fb4049c6-a4f2-4eef-8c4d-9784695b9b38",
  "breakAfter": null,
  "canOrderBy": null,
  "canUpdate": null,
  "class": "is-2",
  "deletedAt": null,
  "descriptionColumn": null,
  "filters": null,
  "findType": null,
  "format": null,
  "helperTextLabelKey": null,
  "id": "6f93367a-5c39-4f30-94fc-659421b7e8f1",
  "include": null,
  "labelKey": "labelKey",
  "mask": null,
  "order": "0",
  "placeholder": null,
  "required": null,
  "valueColumn": null
}