{
  "ModelId": "5a7fa022-b6ec-461a-a08e-7aa3a9f57cae",
  "TargetModelFieldId": null,
  "default": null,
  "deletedAt": null,
  "id": "7baef05a-aca6-4442-a351-71b6a2b02ff9",
  "length": null,
  "modelFieldType": "DataTypes.TEXT",
  "name": "comment",
  "selectOptions": null,
  "targetModel": null,
  "targetModelAlias": null,
  "type": "richText"
}