{
  "ModelId": "790a8062-854b-42a2-b13f-7559a5c6b9b0",
  "TargetModelFieldId": null,
  "default": null,
  "deletedAt": null,
  "id": "667e035f-8132-4840-b9fe-ad8fcf639d59",
  "length": null,
  "modelFieldType": "DataTypes.STRING",
  "name": "action",
  "selectOptions": null,
  "targetModel": null,
  "targetModelAlias": null,
  "type": "string"
}