{
  "ModelId": "405cf410-c096-4b15-b7a8-97a0ed9bae72",
  "TargetModelFieldId": null,
  "default": null,
  "deletedAt": null,
  "id": "4a204384-cc95-400f-9f19-b88288c6dcd0",
  "length": null,
  "modelFieldType": "DataTypes.DATE",
  "name": "deletedAt",
  "selectOptions": null,
  "targetModel": null,
  "targetModelAlias": null,
  "type": "datetime"
}