{
  "ViewId": "033d3906-41de-4b8c-870b-2a4f3ddf8a9b",
  "class": null,
  "deletedAt": null,
  "id": "1f0e9f5f-afc4-4c95-bcd9-539b2c4871cf",
  "labelKey": "edit",
  "order": "1",
  "params": null,
  "position": "top right",
  "slug": "/menu_section_form/:id:",
  "type": "navigation"
}