{
  "ViewId": "c86e60da-9a65-4e9f-84f4-9ca21296ed02",
  "class": "is-link",
  "deletedAt": null,
  "id": "09b17ddb-25b2-4bb3-af62-abc766e856f5",
  "labelKey": "edit",
  "order": "1",
  "params": null,
  "position": null,
  "slug": "/notification_form/:id:",
  "type": "navigation"
}