{
  "MenuSectionId": null,
  "ModelId": "72c405ec-6078-4753-bf41-c6b774131ca8",
  "class": null,
  "deletedAt": null,
  "filters": null,
  "id": "43e3338a-de13-41f7-8675-6b0896dc3565",
  "include": null,
  "key": "list-modelFields",
  "labelKey": "ModelFields",
  "showOnMenu": false,
  "slug": "",
  "type": "ListView"
}