{
  "ModelId": "7b6a5206-e3a7-4f9f-a2bc-462253cf3b8a",
  "TargetModelFieldId": null,
  "default": null,
  "deletedAt": null,
  "id": "da88ec8e-a5a7-4f0a-844b-abfc61ab42d4",
  "length": null,
  "modelFieldType": "DataTypes.BOOLEAN",
  "name": "showOnMenu",
  "selectOptions": null,
  "targetModel": null,
  "targetModelAlias": null,
  "type": "boolean"
}