{
  "ModelId": "5abcd236-670e-436f-81c7-3c3e44a5e270",
  "TargetModelFieldId": null,
  "default": null,
  "deletedAt": null,
  "id": "4798e53d-79a5-4ece-88af-aa3f19936cf6",
  "length": null,
  "modelFieldType": "DataTypes.STRING",
  "name": "labelKey",
  "selectOptions": null,
  "targetModel": null,
  "targetModelAlias": null,
  "type": "string"
}