{
  "ModelId": "5abcd236-670e-436f-81c7-3c3e44a5e270",
  "TargetModelFieldId": null,
  "default": null,
  "deletedAt": null,
  "id": "6afb9eee-fbcd-4f6b-96cd-579f0d4f2ea6",
  "length": null,
  "modelFieldType": "DataTypes.INTEGER",
  "name": "level",
  "selectOptions": null,
  "targetModel": null,
  "targetModelAlias": null,
  "type": "integer"
}