{
  "ModelId": "5abcd236-670e-436f-81c7-3c3e44a5e270",
  "TargetModelFieldId": null,
  "default": null,
  "deletedAt": null,
  "id": "81e0d858-e827-49f9-963c-8a4fdb27328a",
  "length": null,
  "modelFieldType": "DataTypes.DATE",
  "name": "updatedAt",
  "selectOptions": null,
  "targetModel": null,
  "targetModelAlias": null,
  "type": "datetime"
}