{
  "ModelId": "5abcd236-670e-436f-81c7-3c3e44a5e270",
  "TargetModelFieldId": "e9b1b096-91fa-4427-b45f-b5a9921443bb",
  "default": null,
  "deletedAt": null,
  "id": "d1f47849-02c3-4e48-9f4b-c39afe93493d",
  "length": null,
  "modelFieldType": null,
  "name": "Users",
  "selectOptions": null,
  "targetModel": "User",
  "targetModelAlias": "Users",
  "type": "hasMany"
}