{
  "ViewId": "000537b4-bdb9-4e74-ad14-c7d00bf2e375",
  "class": "has-text-danger",
  "deletedAt": null,
  "id": "f2c79b2e-f63d-438e-b7c3-2ff2b80a8b45",
  "labelKey": "remove",
  "order": "2",
  "params": {
    "id": ":id:"
  },
  "position": null,
  "slug": null,
  "type": "delete"
}