{
  "ChildViewId": null,
  "ModelFieldId": "dd9a3400-0ade-47be-b8b3-a7d6c6a43e39",
  "ViewId": "979d16fb-5269-4e8a-974d-3d6e6b310373",
  "breakAfter": false,
  "canOrderBy": false,
  "canUpdate": true,
  "class": "is-6",
  "deletedAt": null,
  "descriptionColumn": null,
  "filters": null,
  "findType": null,
  "format": null,
  "helperTextLabelKey": "",
  "id": "7398bfef-a7f4-451a-9db1-b3e104a7c803",
  "include": null,
  "labelKey": "endDate",
  "mask": null,
  "order": "999",
  "placeholder": null,
  "required": false,
  "valueColumn": null
}