{
  "ChildViewId": null,
  "ModelFieldId": "dd9a3400-0ade-47be-b8b3-a7d6c6a43e39",
  "ViewId": "c11f6c46-5ddc-4715-a3b6-710e40227977",
  "breakAfter": false,
  "canOrderBy": false,
  "canUpdate": true,
  "class": "is-6",
  "deletedAt": null,
  "descriptionColumn": null,
  "filters": null,
  "findType": null,
  "format": null,
  "helperTextLabelKey": null,
  "id": "adf8528c-2399-41ce-a079-7c06bcde15eb",
  "include": null,
  "labelKey": "endDate",
  "mask": null,
  "order": "999",
  "placeholder": null,
  "required": false,
  "valueColumn": null
}