{
  "ModelId": "29de1456-e5c8-4086-b05e-68e581fe3734",
  "TargetModelFieldId": null,
  "default": null,
  "deletedAt": null,
  "id": "0d8831e8-af76-4d93-8195-a0abd8824e8c",
  "length": 255,
  "modelFieldType": "DataTypes.STRING",
  "name": "name",
  "selectOptions": null,
  "targetModel": null,
  "targetModelAlias": null,
  "type": "string"
}