{
  "MenuSectionId": "8dcd077b-b723-4b33-8c80-48702c9afdf4",
  "ModelId": "9c16a857-9808-4de0-9362-48b29f9e5f79",
  "class": null,
  "deletedAt": null,
  "filters": null,
  "id": "8934a4e8-58f9-44ca-85ac-97843f634929",
  "include": null,
  "key": "form-viewFields",
  "labelKey": "fields",
  "showOnMenu": false,
  "slug": "",
  "type": "FormView"
}