{
  "ViewId": "dddfaee7-4c57-4f72-aa3b-3a629e247b41",
  "class": "has-text-danger",
  "deletedAt": null,
  "id": "389b1fb9-ea37-4e79-ad78-0ad0a9a0fa83",
  "labelKey": "remove",
  "order": "2",
  "params": {
    "id": ":id:"
  },
  "position": null,
  "slug": null,
  "type": "delete"
}