{
  "ViewId": "75123032-b4dc-44f9-b57f-05142e7290fb",
  "class": "is-link",
  "deletedAt": null,
  "id": "0d7c15ef-b7fc-4aeb-a4f6-800f84454d71",
  "labelKey": "create",
  "order": "1",
  "params": null,
  "position": "top right",
  "slug": "/model_permission_form",
  "type": "navigation"
}