{
  "ViewId": "a8a23a6e-a003-46f5-8b2f-9854b3583d75",
  "class": "is-primary",
  "deletedAt": null,
  "id": "f68c6549-185d-43a3-a0fa-e59924b4c612",
  "labelKey": "save",
  "order": "1",
  "params": null,
  "position": "form end",
  "slug": "/role",
  "type": "submit"
}