{
  "ViewId": "a4eff7c5-394a-4d33-ad94-15ca8004f145",
  "class": null,
  "deletedAt": null,
  "id": "257594c7-0cee-4afb-96d2-d48553360227",
  "labelKey": "remove",
  "order": "2",
  "params": {
    "id": ":id"
  },
  "position": "top right",
  "slug": null,
  "type": "delete"
}