{
  "ViewId": "a4eff7c5-394a-4d33-ad94-15ca8004f145",
  "class": null,
  "deletedAt": null,
  "id": "a077a3d5-ab0b-4390-a682-c47e994bdf0b",
  "labelKey": "edit",
  "order": "1",
  "params": null,
  "position": "top right",
  "slug": "/user_form/:id:",
  "type": "navigation"
}