{
  "ViewId": "72e232e5-c57a-4002-9021-228e76b11334",
  "class": "is-primary",
  "deletedAt": null,
  "id": "d22fca4a-a700-4d2c-831b-a4af1f4b1ae7",
  "labelKey": "save",
  "order": "1",
  "params": null,
  "position": "form end",
  "slug": "/dashboard",
  "type": "submit"
}