{
  "ViewId": "6c95481c-97a8-40cf-8cb8-00b85607207d",
  "class": "is-info",
  "deletedAt": null,
  "id": "7ce35412-d8a8-4b59-bdc3-b5bfc429c238",
  "labelKey": "save",
  "order": "1",
  "params": null,
  "position": "form end",
  "slug": "/notification",
  "type": "submit"
}