{
  "ViewId": "213f70bb-5ee1-4ce5-9810-45199efe85ed",
  "class": null,
  "deletedAt": null,
  "id": "f6ddacd4-20b9-48e8-af3f-44a85b8700f8",
  "labelKey": "edit",
  "order": "1",
  "params": null,
  "position": "top right",
  "slug": "/notification_form",
  "type": "navigation"
}