{
  "MenuSectionId": null,
  "ModelId": "37556920-9519-4a41-b170-ab856a1c9149",
  "class": null,
  "deletedAt": null,
  "filters": null,
  "id": "6c95481c-97a8-40cf-8cb8-00b85607207d",
  "include": null,
  "key": "form-notification",
  "labelKey": "Notification",
  "showOnMenu": false,
  "slug": "/notification_form",
  "type": "FormView"
}