{
  "MenuSectionId": "2f9020dc-ee9f-446e-931a-b6217ee41c8b",
  "ModelId": "37556920-9519-4a41-b170-ab856a1c9149",
  "class": null,
  "deletedAt": null,
  "filters": null,
  "id": "c86e60da-9a65-4e9f-84f4-9ca21296ed02",
  "include": null,
  "key": "list-notification",
  "labelKey": "Notification",
  "showOnMenu": false,
  "slug": "/notification",
  "type": "ListView"
}