{
  "ModelId": "6a70bba5-a02d-4943-b559-4cc5862d8e99",
  "TargetModelFieldId": null,
  "default": null,
  "deletedAt": null,
  "id": "358d4d47-9b21-47ef-9940-6fce22e72300",
  "length": 255,
  "modelFieldType": "DataTypes.STRING",
  "name": "labelKey",
  "selectOptions": null,
  "targetModel": null,
  "targetModelAlias": null,
  "type": "string"
}