{
  "ModelId": "6a70bba5-a02d-4943-b559-4cc5862d8e99",
  "TargetModelFieldId": null,
  "default": null,
  "deletedAt": null,
  "id": "4ce1754b-14ae-4e0b-bd71-3a804381eff6",
  "length": 255,
  "modelFieldType": "DataTypes.STRING",
  "name": "class",
  "selectOptions": null,
  "targetModel": null,
  "targetModelAlias": null,
  "type": "string"
}