{
  "ChildViewId": null,
  "ModelFieldId": "c2c250c1-5ab0-42ff-87da-ea0f3e3b441f",
  "ViewId": "c86e60da-9a65-4e9f-84f4-9ca21296ed02",
  "breakAfter": false,
  "canOrderBy": false,
  "canUpdate": true,
  "class": "is-6",
  "deletedAt": null,
  "descriptionColumn": null,
  "filters": null,
  "findType": null,
  "format": null,
  "helperTextLabelKey": "",
  "id": "4ab7c8f8-a861-4541-bd0c-9ccf0a228d27",
  "include": null,
  "labelKey": "TargetUserId",
  "mask": null,
  "order": "999",
  "placeholder": null,
  "required": false,
  "valueColumn": null
}