{
  "ChildViewId": null,
  "ModelFieldId": "c331abf3-4834-4bdb-b73a-c51ad27861c8",
  "ViewId": "213f70bb-5ee1-4ce5-9810-45199efe85ed",
  "breakAfter": false,
  "canOrderBy": false,
  "canUpdate": true,
  "class": "is-6",
  "deletedAt": null,
  "descriptionColumn": null,
  "filters": null,
  "findType": null,
  "format": null,
  "helperTextLabelKey": null,
  "id": "9b886f6d-b1b7-4c74-a8a9-09e67e4aebcf",
  "include": null,
  "labelKey": "originRecordId",
  "mask": null,
  "order": "999",
  "placeholder": null,
  "required": false,
  "valueColumn": null
}