{
  "ChildViewId": null,
  "ModelFieldId": "f2cb7f42-4d1f-4877-ac81-6e816110deaa",
  "ViewId": "6c95481c-97a8-40cf-8cb8-00b85607207d",
  "breakAfter": false,
  "canOrderBy": false,
  "canUpdate": true,
  "class": "is-6",
  "deletedAt": null,
  "descriptionColumn": null,
  "filters": null,
  "findType": null,
  "format": null,
  "helperTextLabelKey": null,
  "id": "d78b4f9c-6958-45a1-ae71-0ec786802521",
  "include": null,
  "labelKey": "content",
  "mask": null,
  "order": "999",
  "placeholder": null,
  "required": false,
  "valueColumn": null
}