{
  "ChildViewId": null,
  "ModelFieldId": "a3a9b7b0-065c-4c62-996e-6040a7ce9efb",
  "ViewId": "84c403ef-e7b3-42d5-bce4-e6ad0d07f8ce",
  "breakAfter": false,
  "canOrderBy": false,
  "canUpdate": false,
  "class": "is-2",
  "deletedAt": null,
  "descriptionColumn": null,
  "filters": null,
  "findType": null,
  "format": null,
  "helperTextLabelKey": "",
  "id": "7deb496b-d908-47bd-9a7f-e1bce9422c81",
  "include": null,
  "labelKey": "updatedAt",
  "mask": null,
  "order": "8",
  "placeholder": null,
  "required": false,
  "valueColumn": null
}