{
  "ChildViewId": null,
  "ModelFieldId": "7dd7c785-dd26-4f86-ad73-283b29bb686a",
  "ViewId": "144bfc5a-d03b-4ec7-aecd-4650c9f7de2a",
  "breakAfter": null,
  "canOrderBy": null,
  "canUpdate": null,
  "class": "is-2",
  "deletedAt": null,
  "descriptionColumn": null,
  "filters": null,
  "findType": null,
  "format": null,
  "helperTextLabelKey": null,
  "id": "e9282bbd-b865-4fd7-b322-8e42b40f523c",
  "include": null,
  "labelKey": "query",
  "mask": null,
  "order": "7",
  "placeholder": null,
  "required": null,
  "valueColumn": null
}