{
  "ModelId": "fc30b20c-aeb5-4790-a694-87b874cbaf98",
  "TargetModelFieldId": null,
  "default": null,
  "deletedAt": null,
  "id": "260aa7ed-b2a4-4bc2-b8f7-6e637d8d6c82",
  "length": null,
  "modelFieldType": null,
  "name": "OrganizationUsers",
  "selectOptions": null,
  "targetModel": "OrganizationUser",
  "targetModelAlias": "OrganizationUsers",
  "type": "hasMany"
}