{
  "ModelId": "fc30b20c-aeb5-4790-a694-87b874cbaf98",
  "TargetModelFieldId": null,
  "default": null,
  "deletedAt": null,
  "id": "8c4fa8c5-1554-454c-b26c-25c0fb27517b",
  "length": null,
  "modelFieldType": null,
  "name": "PhotoFileId",
  "selectOptions": null,
  "targetModel": "PhotoFile",
  "targetModelAlias": "PhotoFile",
  "type": "file"
}