{
  "ModelId": "37556920-9519-4a41-b170-ab856a1c9149",
  "TargetModelFieldId": null,
  "default": null,
  "deletedAt": null,
  "id": "917eabb6-93fc-45c5-afce-a15005db9234",
  "length": null,
  "modelFieldType": null,
  "name": "OrganizationId",
  "selectOptions": null,
  "targetModel": "Organization",
  "targetModelAlias": "Organization",
  "type": "belongsTo"
}