{
  "ModelId": "37556920-9519-4a41-b170-ab856a1c9149",
  "TargetModelFieldId": null,
  "default": null,
  "deletedAt": null,
  "id": "b2c3855c-4687-4f92-bc99-a562bd2ae773",
  "length": null,
  "modelFieldType": "DataTypes.BOOLEAN",
  "name": "read",
  "selectOptions": null,
  "targetModel": null,
  "targetModelAlias": null,
  "type": "boolean"
}