{
  "ChildViewId": null,
  "ModelFieldId": "5a7b675e-f37f-4e1d-ba21-b93da54bee2b",
  "ViewId": "8934a4e8-58f9-44ca-85ac-97843f634929",
  "breakAfter": false,
  "canOrderBy": false,
  "canUpdate": true,
  "class": "is-6",
  "deletedAt": null,
  "descriptionColumn": null,
  "filters": null,
  "findType": "",
  "format": null,
  "helperTextLabelKey": "",
  "id": "9b783915-5974-467a-8c03-384430ad86e3",
  "include": null,
  "labelKey": "order",
  "mask": null,
  "order": "6",
  "placeholder": null,
  "required": false,
  "valueColumn": null
}