{
  "ChildViewId": null,
  "ModelFieldId": "057ac17a-af86-4ce3-8e5f-62ebc2f9d2e1",
  "ViewId": "a8a23a6e-a003-46f5-8b2f-9854b3583d75",
  "breakAfter": null,
  "canOrderBy": null,
  "canUpdate": false,
  "class": "is-2",
  "deletedAt": null,
  "descriptionColumn": null,
  "filters": null,
  "findType": null,
  "format": null,
  "helperTextLabelKey": null,
  "id": "14e4628b-e83c-4d40-a9a4-86a05719e63f",
  "include": null,
  "labelKey": "createdAt",
  "mask": null,
  "order": "4",
  "placeholder": null,
  "required": null,
  "valueColumn": null
}