{
  "ChildViewId": null,
  "ModelFieldId": "727ac677-bcae-444d-8fea-3d94c0f7a82b",
  "ViewId": "e7565785-4b86-4e3c-8bc2-6a628dabbdb3",
  "breakAfter": null,
  "canOrderBy": null,
  "canUpdate": null,
  "class": "is-2",
  "deletedAt": null,
  "descriptionColumn": null,
  "filters": null,
  "findType": null,
  "format": null,
  "helperTextLabelKey": null,
  "id": "25ab47f0-f6ac-4d5d-ba22-6c899fd3e25d",
  "include": null,
  "labelKey": "hasFullAccess",
  "mask": null,
  "order": "2",
  "placeholder": null,
  "required": null,
  "valueColumn": null
}