{
  "ChildViewId": null,
  "ModelFieldId": "6afb9eee-fbcd-4f6b-96cd-579f0d4f2ea6",
  "ViewId": "d7f2ee21-1673-43ac-b3b8-de0d51aecaff",
  "breakAfter": false,
  "canOrderBy": false,
  "canUpdate": false,
  "class": "is-2",
  "deletedAt": null,
  "descriptionColumn": null,
  "filters": null,
  "findType": null,
  "format": null,
  "helperTextLabelKey": "",
  "id": "70acc847-0378-4b78-9f16-168971750576",
  "include": null,
  "labelKey": "level",
  "mask": null,
  "order": "0",
  "placeholder": null,
  "required": false,
  "valueColumn": null
}