{
  "ViewId": "43e3338a-de13-41f7-8675-6b0896dc3565",
  "class": null,
  "deletedAt": null,
  "id": "fc9bd3d8-c214-4f44-a877-17f760e43e43",
  "labelKey": "create",
  "order": "0",
  "params": null,
  "position": "top right",
  "slug": "/model_field_editor?ModelId=:id:",
  "type": "navigation"
}