{
  "ChildViewId": null,
  "ModelFieldId": "a8c27708-945a-4095-86b8-74930141e4db",
  "ViewId": "07ba578b-e244-43dc-be4e-c8244668a303",
  "breakAfter": false,
  "canOrderBy": false,
  "canUpdate": false,
  "class": null,
  "deletedAt": null,
  "descriptionColumn": null,
  "filters": null,
  "findType": null,
  "format": null,
  "helperTextLabelKey": "",
  "id": "8f054219-1aac-42fd-a872-450e70acb45a",
  "include": null,
  "labelKey": "createdAt",
  "mask": null,
  "order": "6",
  "placeholder": null,
  "required": false,
  "valueColumn": null
}