{
  "ChildViewId": null,
  "ModelFieldId": "a1457606-083c-48df-bf1d-6fa7ac276d6b",
  "ViewId": "28e36655-1225-45dd-8060-4a4f455a6fb4",
  "breakAfter": false,
  "canOrderBy": false,
  "canUpdate": true,
  "class": "is-6",
  "deletedAt": null,
  "descriptionColumn": null,
  "filters": null,
  "findType": null,
  "format": null,
  "helperTextLabelKey": "",
  "id": "7bcb3655-6018-412f-8c03-7f4e584327be",
  "include": null,
  "labelKey": "color",
  "mask": null,
  "order": "1",
  "placeholder": null,
  "required": false,
  "valueColumn": null
}