{
  "ChildViewId": null,
  "ModelFieldId": "0d8831e8-af76-4d93-8195-a0abd8824e8c",
  "ViewId": "0c9d6688-1f88-48f2-860e-080bc28bc1b6",
  "breakAfter": false,
  "canOrderBy": false,
  "canUpdate": false,
  "class": "is-2",
  "deletedAt": null,
  "descriptionColumn": null,
  "filters": null,
  "findType": null,
  "format": null,
  "helperTextLabelKey": "",
  "id": "e5a80a95-a71d-4dd7-9488-04d2c2de199a",
  "include": null,
  "labelKey": "name",
  "mask": null,
  "order": "2",
  "placeholder": null,
  "required": false,
  "valueColumn": null
}