{
  "ViewId": "c11f6c46-5ddc-4715-a3b6-710e40227977",
  "class": "is-info",
  "deletedAt": null,
  "id": "a4e1de42-0d6b-4e0c-9916-df585312c2aa",
  "labelKey": "save",
  "order": "1",
  "params": null,
  "position": "form end",
  "slug": "/user_session_emulate",
  "type": "submit"
}