{
  "id": "96f9847c-2e30-4e02-8a71-7854f4fa290d",
  "deletedAt": null,
  "ModelFieldId": "f889f2ee-315b-489e-b513-4a25a7d6a47a",
  "ModelId": "5a7fa022-b6ec-461a-a08e-7aa3a9f57cae",
  "RoleId": "37b79ec8-56d2-4e67-892a-e6ad3b79a21a"
}