{
  "id": "fecc5a64-3ceb-4e9a-967e-e2fe9a5e565e",
  "deletedAt": null,
  "ModelFieldId": "e13697a0-195e-4196-8873-a8cae3f52c5e",
  "ModelId": "72c405ec-6078-4753-bf41-c6b774131ca8",
  "RoleId": "37b79ec8-56d2-4e67-892a-e6ad3b79a21a"
}