{
  "ModelId": "d0ff17b6-1af4-407f-87ab-fa49709aca0e",
  "TargetModelFieldId": null,
  "default": null,
  "deletedAt": null,
  "id": "7dd7c785-dd26-4f86-ad73-283b29bb686a",
  "length": null,
  "modelFieldType": "DataTypes.JSON",
  "name": "query",
  "selectOptions": null,
  "targetModel": null,
  "targetModelAlias": null,
  "type": "json"
}