{
  "ModelId": "d0ff17b6-1af4-407f-87ab-fa49709aca0e",
  "TargetModelFieldId": null,
  "default": null,
  "deletedAt": null,
  "id": "a3a9b7b0-065c-4c62-996e-6040a7ce9efb",
  "length": null,
  "modelFieldType": "DataTypes.DATE",
  "name": "updatedAt",
  "selectOptions": null,
  "targetModel": null,
  "targetModelAlias": null,
  "type": "datetime"
}