{
  "MenuSectionId": null,
  "ModelId": "12c32798-4211-4740-8189-9f878d8e6b9b",
  "class": null,
  "deletedAt": null,
  "filters": null,
  "id": "7ef822ad-1760-4d40-b4af-63d79613e0a2",
  "include": null,
  "key": "form-organization_user",
  "labelKey": "OrganizationUser",
  "showOnMenu": false,
  "slug": "/organization_user_form",
  "type": "FormView"
}