{
  "ChildViewId": null,
  "ModelFieldId": "b8dd9cbb-1604-43c8-a747-a4f74c3b6900",
  "ViewId": "e1514e4c-9493-48a8-99fc-bac07d019187",
  "breakAfter": false,
  "canOrderBy": false,
  "canUpdate": false,
  "class": "is-2",
  "deletedAt": null,
  "descriptionColumn": "labelKey",
  "filters": null,
  "findType": null,
  "format": null,
  "helperTextLabelKey": "",
  "id": "5918740d-7bf3-4be5-86c3-900673de6c47",
  "include": null,
  "labelKey": "RoleId",
  "mask": null,
  "order": "0",
  "placeholder": null,
  "required": false,
  "valueColumn": null
}