{
  "ChildViewId": null,
  "ModelFieldId": "da88ec8e-a5a7-4f0a-844b-abfc61ab42d4",
  "ViewId": "d16fb811-afe8-4d56-a007-274a9bd21445",
  "breakAfter": null,
  "canOrderBy": null,
  "canUpdate": null,
  "class": null,
  "deletedAt": null,
  "descriptionColumn": null,
  "filters": null,
  "findType": null,
  "format": null,
  "helperTextLabelKey": null,
  "id": "bff21a2b-1dc3-4dc9-a907-037b3cd08baf",
  "include": null,
  "labelKey": "showOnMenu",
  "mask": null,
  "order": "5",
  "placeholder": null,
  "required": null,
  "valueColumn": null
}