{
  "ModelId": "12c32798-4211-4740-8189-9f878d8e6b9b",
  "TargetModelFieldId": null,
  "default": null,
  "deletedAt": null,
  "id": "3f137726-1a30-494a-b81e-6f727dd404a4",
  "length": null,
  "modelFieldType": "DataTypes.DATE",
  "name": "updatedAt",
  "selectOptions": null,
  "targetModel": null,
  "targetModelAlias": null,
  "type": "datetime"
}