{
  "MenuSectionId": "8dcd077b-b723-4b33-8c80-48702c9afdf4",
  "ModelId": "fc30b20c-aeb5-4790-a694-87b874cbaf98",
  "class": null,
  "deletedAt": null,
  "filters": [
    {
      "name": "name",
      "criteria": "iLike",
      "class": "is-4"
    },
    {
      "name": "email",
      "criteria": "iLike",
      "class": "is-4"
    },
    {
      "name": "createdAt",
      "criteria": "gte",
      "labelKey": "createdAtPeriodStart",
      "class": "is-4"
    },
    {
      "name": "createdAt",
      "criteria": "lte",
      "labelKey": "createdAtPeriodEnd",
      "class": "is-4"
    }
  ],
  "id": "07ba578b-e244-43dc-be4e-c8244668a303",
  "include": [
    "Role",
    "Language"
  ],
  "key": "list-users",
  "labelKey": "users",
  "showOnMenu": true,
  "slug": "/user",
  "type": "ListView"
}